%YAML 1.1
%TAG !u! tag:unity3d.com,2011:
--- !u!114 &11400000
MonoBehaviour:
  m_ObjectHideFlags: 0
  m_PrefabParentObject: {fileID: 0}
  m_PrefabInternal: {fileID: 0}
  m_GameObject: {fileID: 0}
  m_Enabled: 1
  m_EditorHideFlags: 0
  m_Script: {fileID: 11500000, guid: f1976ef3a3cef0147bee8823c7b4ddc5, type: 3}
  m_Name: NewScripableObject
  m_EditorClassIdentifier: 
  objectName: New MyScriptableObject
  colorIsRandom: 0
  thisColor: {r: 1, g: 1, b: 1, a: 1}
  spawnPoints: []
